[gd_scene load_steps=6 format=2]

[ext_resource path="res://Elements/SpriteStack/SpriteStack.shader" type="Shader" id=1]
[ext_resource path="res://icon.png" type="Texture" id=2]
[ext_resource path="res://Assets/slices.png" type="Texture" id=3]
[ext_resource path="res://Elements/SpriteStack/SpriteStack.gd" type="Script" id=4]



[sub_resource type="ShaderMaterial" id=1]
shader = ExtResource( 1 )
shader_param/slice_count = 23
shader_param/camera_vec = Vector2( 1, 1 )
shader_param/camera_ang = 2.307
shader_param/flip_stack_order = true
shader_param/spritesheet = ExtResource( 3 )

[node name="SpriteStack" type="Sprite"]
material = SubResource( 1 )
position = Vector2( 23.8973, -1.93245 )
texture = ExtResource( 2 )
script = ExtResource( 4 )
spritestack = ExtResource( 3 )
slice_count = 23
camera_angle = 2.307
